"File Number","Case Date","Case Type",Reference,"Driver Name","Workshop Name","Customer Name",Make,Model,"Car Registration Number","Customer Mobile","Customer Email","Pickup Location","Drop Location"
75r23756438,,Direct,mukesh,umars,"new workshop",maneeesh,Jeep,abccc,MH-04-FL-7049,9022427049,shaikhabdullah1995@gmail.com,"Mira road",nalasopara
,,,,umars,"new workshop",eric,bajaj,220f,MH-04-FL-7049,9022427049,xyz@gmail.com,"mira raod, naya nagar",
,03/01/2020,,,umars,"new workshop",newaaa,,,,,,,
,23/12/2019,,,,tttt,aaa,,,,9022427049,shaikhabdullah1995@gmail.com,,
